…
Let’s say we were wondering which city has the highest number of crimes
…

SQL Equivalent is:

> SELECT city, count(city) AS n  
> FROM crime\_scene\_report  
> GROUP BY city  
> ORDER BY n DESC

``` r
crime_scene_report %>% 
    count(city) %>% 
    arrange(desc(n))
#> # A tibble: 377 x 2
#>    city             n
#>    <chr>        <int>
#>  1 Murfreesboro     9
#>  2 SQL City         9
#>  3 Duluth           8
#>  4 Evansville       8
#>  5 Jersey City      8
#>  6 Toledo           8
#>  7 Dallas           7
#>  8 Hollywood        7
#>  9 Kissimmee        7
#> 10 Lancaster        7
#> # ... with 367 more rows
```
…
Let’s say we’re interested in finding the people that start with a
**Z**. We will use the `stringr` package for this. The `str_detect()`
function can be used in conjunction with regular expressions - here we
looking for names that start with **`(^)`** **Z**.

SQL Equivalent is:

> SELECT \* FROM person  
> WHERE name LIKE ‘Z%’

``` r
library(stringr)
person %>% filter(stringr::str_detect(name, "^Z"))
#> # A tibble: 64 x 6
#>       id name          license_id address_number address_street_na~     ssn
#>    <int> <chr>              <int>          <int> <chr>                <int>
#>  1 10452 Zachary Ange~     702210           3713 Currant Ave         9.66e8
#>  2 10797 Zack Penteco~     150590           1839 Rushwood St         5.33e8
#>  3 11264 Zada Laban        808317           1663 Testa Circle        9.83e8
#>  4 14182 Zack Karwoski     964918           1546 W Middleton Way     4.82e8
#>  5 14930 Zella Pietrz~     440964           3680 Sandgate Circle     4.43e8
#>  6 20771 Zenaida Deir      778230           2853 Hartspring Rd       8.80e8
#>  7 21255 Zachery Vento     649717           3238 Breillat Dr         9.31e8
#>  8 22393 Zandra Dashn~     385198           2940 Yara Dr             8.43e8
#>  9 22636 Zachary Ybar~     768359            785 Franklin Ave        2.85e8
#> 10 22906 Zachariah Be~     989596           1008 Skyland St          6.57e8
#> # ... with 54 more rows
```
